{
  "version": 1,
  "serviceConfiguration": {
    "apiName": "amplifyvalai",
    "serviceName": "AppSync",
    "gqlSchemaPath": "/Users/biliu/nab/valai/web-app/amplify-valai/amplify/backend/api/amplifyvalai/schema.graphql",
    "defaultAuthType": {
      "mode": "API_KEY",
      "expirationTime": 7
    }
  }
}