{
  "version": 1,
  "paths": {
    "/property/{id}": {
      "name": "/property/{id}",
      "lambdaFunction": "amplifyengine",
      "permissions": {
        "setting": "private",
        "auth": [
          "create",
          "update",
          "delete"
        ]
      }
    }
  }
}